Name,Phone,Email,Account
Mr.D. Srinivasa Rao,8819278343,info@rspl.ind.in,Ravali Spinners Pvt. Ltd
Mr.Shivashankar Reddy,8008576972,jtplstores@gmail.com,Jyotirmaye Textiles Private Limited
Mr.Mohana Rao,8096851382,stores2@icmtex.com,Idupulapadu Cotton Mills Limited Unit-2
Mr.S.V.Govindraj,8632344015,kallamsp@gmail.com,Kallam Spinning Mills Limited
Mr.G.Balaji,8008933122,stores.vishwaspin@gmail.com,Viswanath Spinnerz India  Limited
Mr.G. Purna chandra Rao - Managing Director,9989731985,Info.gajavelli@gmail.com,Gajavelli Spinning Mills Limited
Srinivasa Rao,9573227899,srinivasarao.nv@nsltextiles.com,Sree Ananthalakshmi Textiles Private Limited
Mr.T.R.V. Ramkumar,08568-213769,sgt@sgrtex.com,Shri Govindaraja Mills (P) Ltd Plant 2
Mr.M.Narendra,9014500966,narendra.m@nsltextiles.com,Nsl Textiles Ltd ( Veeravalli Unit )
No Name,7799889911,storesaimanasa@gmail.com,SaiManasa Spintex India Pvt Ltd
Murugesh,4632220003,murugesh@loyaltextiles.com,Loyal-Shri Vishala Textile Mills
"Mr.G.Sathyaseelarajan,TD",9550601199,td.spg@vilanapparels.com,Thatavarthi Apparels Ltd
Mr.D.H. Srinivasa Reddy (Head of Spinning Operations),7032945715,dhsreddy@nsltextiles.com,NSL Textiles Ltd (Edlapadu Unit)
Srinivasa Rao,9440632657,srinivasaraop@nvtmltd.com,Nandhivardhnana Textiles Ltd
Mr.P.Amarchand Director,9885457755,spares.tirumala@yahoo.com,Tirumala Cotton & Agro products Pvt.Ltd.
Mr.P.V.Raju,9295055509,spgtnku@pvrgroup.com,PVR Spinning and Weaving Limited
Mr.P.Poorna Veeeraiah -MD,8674239466,usipl.md@gmail.com,Uma Spintex India Pvt Ltd
"Mr.Ramakottireaddy, MD",9703437595,bhavanamtextiles@gmail.com,Bhavanam Textiles  India Pvt Ltd
Mr.Ramesh Pullela,9440624767,atplgm@gmail.com,Amaravathi Textiles (P) Ltd
"Mr.K.VENKATA SUNEEL, GM",96662 76677,,Swarnalatha Spintex Pvt Ltd
"Mr.K.MohanaRao, Technical Director",08647-250065,sivaswati@gmail.com,Siva Swathi Textile Pvt Ltd
"Mr.Ramesh, MD",9848030582,kkind4863@gmail.com,KK Spintex Pvt Ltd
Mr.Sasidhar Genereal Manager,9581442701,gm@mittapallispinners.com,Mittapalli Spinners Limited
"Mr.Aravind, MD",8641214477,rayanispintex@yahoo.com,Rayani Spintex Pvt Ltd
"Mr.Phani Krishna, Director",08647-214699,kmurthyspinningmill@gmail.com,Krishnamurthy Spinning Mills (p) Ltd
"Mr.Sankar, AGM",7702002650,gm.sreevasa@gmail.com,Sreevasa Spinners Ltd
Mr.Suresh,08647-259041,ysrstores@gmail.com,YSR Spinning & Weaving Mills (p) Ltd
Mr.CH. Shankar Babu,08647-253860,stores@icmtex.com,Idupulapadu Cotton Mills Pvt Ltd-Unit-1
"Mr.Kannaiah, GM",08641-239724,bhavanamspg@gmail.com,Bhavanam Spinning Mills Pvt Ltd
No Name,9959281093,ysrstores@gmail.com,YSR Spinning & Weaving Mills (p) Ltd
"Mr.Sridher, GM",8676256670,ushaspin@gmail.com,Usha Spincoat (p) Ltd
Mr.P.R.Raju - Managing Director,8819210065,spg@ramabhadra.com,Ramabhadra Industries Private limited
Mr.J.S.Rao,08647 276204,supriyayarn@gmail.com,Supriya Spinning Mills Pvt Ltd
"Mr.SrinivasaRao, MD",0,kshamapattichunchu@gmail.com,Kumar Textile (p) ltd
Mr.N.V.Srinivasarao,040-30514444,srinivasarao.nv@nsltextiles.com,Nsl Textiles Ltd (Pulivendula Unit)
"Mr.Kishore Babu. Ghanta, VP(T)",08644-254110,,Sri Venkata Siva Parvathi Spinning Mills (p) Ltd
"Mr.Somasekharavarma, GM(w)",08654-283100,,Rajapalayam Mills Limited.(AP)
"Mr.Nagamalleshwar Rao,GM",9490163779,,Mohan Spintex India Ltd Unit 1
Mr.Y.A.Subramanya President,08656-239555,gmunit2@mohanspintex.com,Mohan spintex India Ltd -Unit-2
Mr.B.Srinivasa Rao,08654-220933,apunit@ramcotex.com,Sandhya Spinning Mill Limited-AP
Mr.B.Srinivasa Rao,9491061800,apunit@ramcotex.com,Sri Vishnu Shankar Mill Ltd (AP unit)
"Mr.Ramana, Director",7799661234,,Spads Textiles Ltd
"Mr.Aswin, MD",7207221010,,Sri Mouli Textiles (p) Ltd
No Name,9030233237,ysrstores@gmail.com,YSR Spinning & Weaving Mills (p) Ltd
No Name,08647-288388,ysrstores@gmail.com,YSR Spinning & Weaving Mills (p) Ltd
"Mr.K.Srinivasa Rao, GM",9908061132,srisahithi_spinning@yahoo.co.in,Sri Sahithi Spinning Mills Ltd
Mr.M. Narasimha Rao Director,9989050699,vasanthaspinnersltd@yahoo.co.in,Vasantha Industries Ltd
Mr.P.Rajendra Naidu,9618311355,sriven2014@gmail.com,Sriven Spincot Private Limited
Mr.B.Srinivasa Rao,9491061800,apunit@ramcotex.com,Sudarsanam Spinning Mills (AP)
Mr.B.Srinivasa Rao,9491061800,apunit@ramcotex.com,Sri Harini Textiles Limited
"Mr.Phanikumar, ED",9912344293,,Sri Anantha Lakshmi Spinning Mills (p) Ltd
"Mr.Manohar, VP",08819-224992,gowthamisolvent@gowthami.com,The Gowthami Solvent Oils Ltd-Spinning Division
No Name,9581412191,ravikumar.v@nsltextiles.com,Nsl Textiles Ltd ( Veeravalli Unit )
Mr.Vasiraju Ravikumar,9581412191,ravikumar.v@nsltextiles.com,NSL Textiles Ltd (Inkollu Unit)
"Mr.Mr.Ramesh Chowdary, FM",08819-210155,gowthamispintexindialtd@gmail.com,Gowthami Spintex (INDIA) Ltd
Mr.Ritesh Agarwal,+91 4027845628,stores@rajvirindustriesltd.com,Rajvir Industries Limited
Mr.Suresh ED,08818 - 284392 / 284398,ss.spintex@yahoo.co.in,Sri Srinivasa Spintex (India) Ltd
Mr.S.Ilango,9348944321,gm@balabalajee.biz,Bala Balajee Textiles Limited
"Mr.Subbaiya, GM",8656239558,,Mohan spintex India Ltd - Unit-3
"Mr.G.Koteswara Rao, MD",0863-2287455,gkmsspinners@gmail.com,"G.K.M.S Cotton Pressing (p) Ltd, Spinning Division"
"Mr.NVN Sudheer, ED",8632224908,cbl@nrkrtextiles.com,Sri NRKR Textiles Pvt Ltd
Mr.R.Navaneethakrishnan,4222311711,navaneethakrishnan.r@ssh.saraelgi.com,Super spinning mills Limited "A" Unit
"Mr.Arunachalam, GM",08418-222444,srinathspinning@yahoo.com,Srinath Spinning Mills Ltd
Mr.Ramesh. M,08656-239555,storesu2@mohanspintex.com,Mohan spintex India Ltd -Unit-2
"Mr.CH.Srinivasa Rao, GM",897813569,stores@sakkuspinningmills.com,Sakku spinning mills ltd
Mr.M.S.R.V.K.Ranga Rao - Managing Director,9866506099,akkamamba@gmail.com,Sree Akkamamba Textiles Ltd
Mr.Rammohan Rao,7382610225,nagamalleswaraspintex@gmail.com,Nagamalleshwararao spintex india ltd
"Mr.A M PRASAD, FM",9493393334,gowthamispinunit2@gmail.com,The Gowthami Solvent Oils Ltd-Spinning Division-Unit-II
"Mr.G.Seetiah, TD",9912786009,viswatejaspinning@gmail.com,Viswateja spinning mills ltd
"Mr.Naresh Laad, GM",8632118871,,Balarama Krishna Spinning Mills (p) Ltd
Mr.D.H.Srinivasa Reddy (Head of Spinning Operations),7032945715,dhsreddy@nsltextiles.com,NSL Textiles Ltd (Inkollu Unit)
Mr.T.R.V Ramkumar,9698421969,pkg@sgrtex.com,Shri Govindaraja Mills (P) Ltd Plant 2
Mr.T.R.V Ramkumar,04566-240269,pkg@sgrtex.com,Shri Govindaraja Mills (P) Ltd Plant 4
Mr.T.R.V Ramkumar,04566-240269,pkg@sgrtex.com,Shri Govindaraja Mills (P) Ltd Plant 1
Mr.G.Palanikumar,4442277335,palanikumar@loyaltextiles.com,Loyal-Shri Vishala Textile Mills
Mr.D.Reddy Prasad,8328369080,mandavacottonmills@gmail.com,Mandava Cotton Mills Pvt Ltd
Mr.K.V.Reddy,9490342224,tejaspinning@gmail.com,Sri Teja Spinners (P) Ltd
Mr.Anji Reddy / Rajendra,9704422255,svuspintex@yahoo.com,Sri Venkata Umasankar Spintex Pvt Ltd
Mr.Srinivasa Reddy,9959617001,manjunatha.spin@gmail.com,Sri Manjunatha Spinning Mills Limited
Mr.Selvaraj,9391504967,selvaraj@sitaramspinners.com,Rama Spinners Pvt Ltd
Mr.Poorna Chandra Aabhaa,7013856577,4sspintexipl@gmail.com,4 S Spintex India Private Limited
Mr.Murali Krishna,8712182789,gsmguntur2006@gmail.com,Guntur Spinning Mills Pvt Ltd
Mr.K Sudhakar,9866730928,hetrospinnersltd@gmail.com,Hetro Spinners Limited
Mr.K Sudhakar,9866730928,hetrospinnersltd@gmail.com,Hetro Spinners Limited
Mr.Balakrishna Das,9490794148,slnsmipl@gmail.com,Sri Lakshmi Narsimha Spinning Mills (India) Pvt Ltd
Mr.K.Thamil Selvan,9705247545,,Sai Global Yarntex (India) Pvt Ltd
Mr.V.Gopal Rao,9440264849,pavanspinning@yahoo.com,Pavan cotton Products (P) Ltd
Mr.Venkateswaralu,99499 16565,,Sri Vaishnavi Spintex (INDIA) Pvt Ltd
No Name,9491061800,,Rajapalayam Mills Limited.(AP)
Mr.S.Chandra Sekhara Rao,9494470126,chandu1223@rediffmail.com,Sri Seshasai Spinning Mills (Pvt) Ltd
No Name,9908848886,,Thatavarthi Apparels Ltd
No Name,8179513699,,Mohan spintex India Ltd - Unit-3
Mr.Harish,8639634445,surabhispinningmills@gmail.com,Surabhi Spinning Mills Pvt Ltd
Mr.K.Sandeep Kumar,9949924211,mithrayarnspvtltd@gmail.com,Mithra Yarns Pvt Ltd
No Name,7799889900,,Hetro Spinners Limited
Mr.Shyam sundar (Head Technical),9994401611,shyamsundar@precot.com,Precot Meridian Limited - B Unit
No Name,4030514444,,NSL Textiles Ltd (Edlapadu Unit)
No Name,8500668391,,Loyal-Shri Vishala Textile Mills
No Name,8594244232,,NSL Textiles Ltd (Inkollu Unit)
No Name,9348944321,,Bala Balajee Textiles Limited
Mr.CH.Srinivasa Rao,9701378780,gm.pragatispinners@gmail.com,Pragati Spinners (P) Ltd
Gowthami,9949554482,gowthamispinunit1@gmail.com,The Gowthami Solvent Oils Ltd-Spinning Division
No Name,9497718442,,Kallam Brothers Cottons (P) Ltd
No Name,8632344015,kallamsp@gmail.com,Kallam Textiles Limited
Mr.Vishunuvaradha Reddy,9618567566,sspl9@yahoo.com,Sreenidhi Spintex Private Limited
Mr.Brahma Naidu,08647 253860,brahmanaidu@icmtex.com,Idupulapadu Cotton Mills Limited Unit-2
Mr.K. Nagi Reddy,9866308397,kbckltex@gmail.com,Kallam Brothers Cottons (P) Ltd
GMUnit 1,8179513699,gmunit1@mohanspintex.com,Mohan Spintex India Ltd Unit 1
No Name,7702711103,stores.spg@vilanapparels.com,Thatavarthi Apparels Ltd
Mr.A.Abhishek,8885552002,purchasevslsec@gmail.com,Vijayalakshmi Spintex Ltd
Mr.G. Oavan Kumar,9160237999,ranganayaka@gmail.com,Ranganayaka Spinning Mills Pvt Ltd
Mr.Amit Kumar Sancheti,9032711426,purchase@ramspg.com,Sri Ram Spinning Mills Ltd
No Name,9866730928,,Sri Venkata Siva Parvathi Spinning Mills (p) Ltd
Mr.Kotibabu.M GM,7036662830,,Yindu Textiles Pvt Ltd
No Name,9494694499,president@mohanspintex.com,Mohan spintex India Ltd - Unit-3
Mr.Venkateswaralu,9390866665,,Thatavarthi Apparels Ltd
No Name,9553173419,,Sri Venkata Umasankar Spintex Pvt Ltd
No Name,9392602714,,Bhavanam Spinning Mills Pvt Ltd
Mr.N.V.Chowdry,9581412191,,Nsl Textiles Ltd ( Veeravalli Unit )
No Name,9866554002,,Idupulapadu Cotton Mills Pvt Ltd-Unit-1
Mr.Gopal Reddy,9490130052,purchaseslks@gmail.com,Sri Lakshmi Kantha Spinners Ltd
No Name,9603543738,,YSR Spinning & Weaving Mills (p) Ltd
No Name,9573395299,stores.ktl@rspl.ind.in,Kakatiya Textiles Ltd
No Name,9912442381,,Veera Associates
No Name,7093366444,,Sri Venkata Umasankar Spintex Pvt Ltd
Mr.N.V.Chowdry,9581412191,,Nsl Textiles Ltd (Pulivendula Unit)
Mr.N. Kishore,8639901175,stores.vaskspintex@gmail.com,Vaskspintex Pvt Ltd ( Formerly Sree Ananthalakshmi Textiles )
No Name,8639901175,stores.vaskspintex@gmail.com,Vaskspintex Pvt Ltd ( Formerly Sree Ananthalakshmi Textiles )
No Name,8639901175,stores.vaskspintex@gmail.com,Vaskspintex Pvt Ltd ( Formerly Sree Ananthalakshmi Textiles )
No Name,8096851382,,Idupulapadu Cotton Mills Pvt Ltd-Unit-1
No Name,9581442701,gm@mittapallispinners.com,Mittapalli Spinners  Pvt Limited
Mr.Vasantha Krishnaprasad - Managing Director,8647276668,,Vasantha Industries Ltd
Mr.N.V.Chowdary  - VP,040 30514444,,NSL Textiles Ltd (Inkollu Unit)
No Name,08819-210155,,Gowthami Spintex (INDIA) Ltd
