Name,Model,Category,Price
User License Starter Edition,12 months,CRM Application,6000
User License Starter Edition,6 months,CRM Application,3000
User License Starter Edition,3 months,CRM Application,1500
User License Starter Edition,1 month,CRM Application,500
User License Professional Edition,,CRM Application,1499
Implementation Charges,,CRM Application,3000
Starter Plus SMS Pack,1 month,CRM Application,700
Starter Plus SMS Pack,3 months,CRM Application,2100
Starter Plus SMS Pack,12 months,CRM Application,8400
SMS  Add-on,12 months,CRM Application,3000
RabbitCRM On-Premise Edition,,CRM Application,1400000
User License Enterprise Edition,12 months,CRM Application,18000
User License Enterprise Edition,6 months,CRM Application,9000
User License Enterprise Edition,3 months,CRM Application,4500
User License On-premise,,CRM Application,12000
One time Customization & Development Charges,,CRM Application,50000
Website Content Updation,,Website,15000
Quotation SMS Alerts Add-on,12 Months,CRM Application,3000
Implementation & Support Service,,CRM Application,150000
User License Starter Edition,4 months,CRM Application,2400
Website Correction and Updation,,Website,30000
Online Implementation Charge,,Service Charges,3000
User License Enterprise Edition,1 Month,CRM Application,10000
RabbitTask Management Application,1 Month,CRM Application,500
User License Starter Edition,7 Months,CRM Application,4200
User License Starter Edition,,CRM Application,600
Missed Call Service Add-on,,Add-on,6000
Missed Call Alert Service,1 Month,Add-on,1000
User License Professional Edition,2 Months,CRM Application,2000
Transactional SMS Pack,,Add-on,0
Website and Domain Renewal Charges,,Website,15000
Quote Customization,,CRM Application,15000
Virtual Number Integration,,Add-on,10000
Bulk Email Credits,,Add-on,0
Calibration Module,,Add-on,25000
Google Cloud – Gmail Business App,,Website,0
Domain Management,,Website,0
SchoolCRM Software,1 month,CRM Application,5000
API Integration Charges,,CRM Application,0
RabbitCRM Professional Edition Web App,,CRM Application,500000
RabbitCRM Android Mobile App,,CRM Application,100000
RabbitCRM iOS Mobile App,,CRM Application,100000
Teflon Tube for Ozone Generator - 1 meter with 6.4mm,,Category 2,700
School CRM Development and Support charges,,CRM Application,800
Inventory Module Development Charges,,CRM Application,84800
School Kit Module Development Charges,,CRM Application,69600
School CRM Development Charges,,CRM Application,0
Website to Lead Integration Charges,,Website,2000
